<svg width="24" height="26" viewBox="0 0 24 26" fill="none" xmlns="http://www.w3.org/2000/svg">
<path d="M12.3195 9.76574C11.6526 9.69989 10.9818 9.84175 10.3987 10.1719C9.81561 10.5021 9.34883 11.0044 9.06226 11.6101C8.77569 12.2158 8.68334 12.8952 8.79785 13.5554C8.91237 14.2156 9.22814 14.8243 9.70195 15.2981C10.1758 15.7719 10.7844 16.0877 11.4446 16.2022C12.1048 16.3167 12.7843 16.2244 13.39 15.9378C13.9957 15.6512 14.498 15.1844 14.8281 14.6014C15.1583 14.0183 15.3002 13.3474 15.2343 12.6806C15.1592 11.9331 14.828 11.2345 14.2968 10.7033C13.7655 10.172 13.067 9.84082 12.3195 9.76574V9.76574ZM20.1449 13C20.1428 13.3533 20.1168 13.706 20.0672 14.0557L22.363 15.8564C22.463 15.9393 22.5303 16.0549 22.5531 16.1828C22.5759 16.3106 22.5526 16.4424 22.4874 16.5547L20.3155 20.3125C20.2495 20.4237 20.1464 20.5081 20.0244 20.5507C19.9023 20.5934 19.7691 20.5915 19.6482 20.5456L17.3681 19.6275C17.2424 19.5774 17.1062 19.5593 16.9718 19.5748C16.8373 19.5903 16.7088 19.639 16.5978 19.7163C16.2498 19.956 15.8841 20.1688 15.504 20.3531C15.3844 20.4112 15.281 20.4978 15.2029 20.6054C15.1248 20.7129 15.0744 20.838 15.0561 20.9696L14.7143 23.4015C14.6919 23.53 14.6255 23.6466 14.5266 23.7315C14.4277 23.8165 14.3023 23.8644 14.172 23.8672H9.82814C9.69993 23.865 9.57631 23.8191 9.47764 23.7373C9.37896 23.6554 9.31112 23.5423 9.28528 23.4168L8.94404 20.9884C8.92487 20.8553 8.87312 20.729 8.79339 20.6208C8.71366 20.5125 8.60841 20.4256 8.487 20.3679C8.10727 20.1846 7.74284 19.9711 7.39724 19.7295C7.28658 19.6525 7.15851 19.6043 7.02456 19.5891C6.89061 19.574 6.755 19.5924 6.62993 19.6427L4.35036 20.5603C4.22956 20.6063 4.0964 20.6082 3.97433 20.5657C3.85227 20.5231 3.74913 20.4389 3.6831 20.3277L1.51118 16.5699C1.44589 16.4577 1.42255 16.3258 1.44533 16.198C1.46812 16.0701 1.53554 15.9545 1.6356 15.8717L3.57595 14.3482C3.68225 14.2639 3.7658 14.1543 3.81901 14.0294C3.87222 13.9045 3.8934 13.7684 3.88064 13.6332C3.86236 13.4215 3.85118 13.2102 3.85118 12.9985C3.85118 12.7867 3.86185 12.5785 3.88064 12.3713C3.892 12.237 3.86978 12.102 3.81597 11.9784C3.76216 11.8549 3.67846 11.7466 3.57239 11.6634L1.63306 10.14C1.53462 10.0568 1.46862 9.94155 1.44662 9.81453C1.42461 9.68752 1.44801 9.55681 1.51271 9.44531L3.68462 5.6875C3.75058 5.57628 3.85368 5.49192 3.97575 5.44928C4.09782 5.40664 4.23103 5.40846 4.35189 5.45441L6.63196 6.37254C6.7577 6.4226 6.89389 6.44069 7.02834 6.42518C7.16278 6.40967 7.29128 6.36105 7.40232 6.28367C7.7503 6.04405 8.11595 5.83117 8.49614 5.64687C8.61567 5.58878 8.71906 5.50215 8.79717 5.39463C8.87528 5.28712 8.92572 5.16202 8.94404 5.03039L9.28579 2.59848C9.30824 2.47004 9.37459 2.35339 9.47351 2.26845C9.57244 2.18352 9.69778 2.13557 9.82814 2.13281H14.172C14.3002 2.13503 14.4238 2.18085 14.5225 2.26273C14.6211 2.3446 14.689 2.45765 14.7148 2.58324L15.0561 5.0116C15.0752 5.14468 15.127 5.27097 15.2067 5.37923C15.2864 5.48749 15.3917 5.57437 15.5131 5.63215C15.8928 5.81545 16.2573 6.0289 16.6029 6.27047C16.7135 6.34746 16.8416 6.39571 16.9755 6.41087C17.1095 6.42603 17.2451 6.40762 17.3702 6.3573L19.6497 5.43969C19.7705 5.39369 19.9037 5.39179 20.0258 5.43434C20.1478 5.47688 20.251 5.56114 20.317 5.67227L22.4889 9.43008C22.5542 9.54235 22.5776 9.67415 22.5548 9.80202C22.532 9.92988 22.4646 10.0455 22.3645 10.1283L20.4242 11.6518C20.3174 11.7359 20.2334 11.8453 20.1797 11.9702C20.126 12.0951 20.1045 12.2314 20.1169 12.3668C20.1337 12.577 20.1449 12.7882 20.1449 13Z" stroke="black" stroke-width="2.49167" stroke-linecap="round" stroke-linejoin="round"/>
</svg>
